[
  {
    "label": "4 Cheeses",
    "items": ["Mozzarella", "Goat Cheese", "Reblochon", "Gorgonzola"],
    "price": 14.9
  },
  {
    "label": "Atlas",
    "items": ["Mozzarella", "Spicy Chicken", "Chorizo", "Marinated Zucchini", "Ras-El-Hanout Spices"],
    "price": 13.6
  },
  {
    "label": "Barcelona",
    "items": ["Mozzarella", "Chorizo", "Fried Onions", "Peppers", "Olives"],
    "price": 13.3
  },
  {
    "label": "Basque",
    "items": ["Mozzarella", "Spicy Chicken", "Peppers", "Candied Tomatoes"],
    "price": 13.6
  },
  {
    "label": "Bolognese",
    "items": ["Mozzarella", "Tomato Pulp", "Ground Beef", "Peppers", "Bacon", "Mushrooms", "Fried Onions", "Olives"],
    "price": 14.3
  },
  {
    "label": "Brunch",
    "items": ["Mozzarella", "Grilled Bacon", "Smoked Sausage", "Candied Tomatoes", "Egg", "Fried Onions"],
    "price": 13.9
  },
  {
    "label": "Calzone",
    "items": ["Mozzarella", "White Ham", "Mushrooms", "Cheese", "Egg", "Oregano"],
    "price": 13.4
  },
  {
    "label": "Cheese Burger",
    "items": ["Tomato Sauce", "Sweet Mustard", "Mozzarella", "Cheddar", "Ground Beef", "Sweet And Sour Pickles", "Red Onions", "Burger Sauce"],
    "price": 14.9
  },
  {
    "label": "Flamenkuche",
    "items": ["Mozzarella", "Bacon", "Cheese", "Fried Onions"],
    "price": 13.3
  },
  {
    "label": "Gorgone",
    "items": ["Mozzarella", "Gorgonzola", "Italian Raw Ham", "Nut"],
    "price": 12.6
  },
  {
    "label": "Indian",
    "items": ["Mozzarella", "Spicy Chicken", "Peppers", "Cashew Nut", "Coriander"],
    "price": 12.8
  },
  {
    "label": "Kebab",
    "items": ["Mozzarella", "Kebab Chicken", "Red Onions", "Kebab Sauce"],
    "price": 12.5
  },
  {
    "label": "Lola",
    "items": ["Fresh Cream", "Mozzarella", "Bacon", "Cheese"],
    "price": 6.9
  },
  {
    "label": "Margherita",
    "items": ["Mozzarella", "Basilic"],
    "price": 9.2
  },
  {
    "label": "Nordic",
    "items": ["Salmon Cream", "Mozzarella", "Cooked Sorrel", "Fresh Salmon Dice", "Fried Onions"],
    "price": 14.9
  },
  {
    "label": "Overseas",
    "items": ["Mozzarella", "Chicken", "Ananas", "Curry"],
    "price": 13.1
  },
  {
    "label": "Périgourdine",
    "items": ["Mozzarella", "Potatoes", "Smoked Duck Breast", "Candied Gizzards", "Fried Onions"],
    "price": 14.1
  },
  {
    "label": "Pollen",
    "items": ["Mozzarella", "Goat Cheese", "Honey", "Nut"],
    "price": 11.8
  },
  {
    "label": "Raclette",
    "items": ["Mozzarella", "Potatoes", "Italian Ham", "Raclette Cheese", "Fried Onions"],
    "price": 14.6
  },
  {
    "label": "Regina",
    "items": ["Mozzarella", "Mushrooms", "White Ham", "Olives"],
    "price": 13.9
  },
  {
    "label": "Sasha",
    "items": ["Tomato Sauce", "Mozzarella", "White Ham", "Cheese"],
    "price": 6.9
  },
  {
    "label": "Sardegna",
    "items": ["Mushrooms", "Smoked Cheese", "Italian Raw Ham", "Olives"],
    "price": 13.9
  },
  {
    "label": "Tartiflette",
    "items": ["Mozzarella", "Potatoes", "Bacon", "Reblochon", "Fried Onions"],
    "price": 14.1
  },
  {
    "label": "Truffade",
    "items": ["Mozzarella", "Potatoes", "Smoked Sausage", "Tome Of Auvergne", "Fried Onions"],
    "price": 14.1
  },
  {
    "label": "Veggie",
    "items": ["Mozzarella", "Peppers", "Mushrooms", "Zucchini", "Cherry Tomatoes", "Artichokes"],
    "price": 13.9
  }
]
